Mandel                  # Type of transform
-1.9, -1.9                  # Lower left
1.9, 1.9                    # Upper right
0, 0                    # Dummy value at present. Could be used to initialize z.